<?xml version="1.0" encoding="UTF-8"?>
<!-- Created with Inkscape (http://www.inkscape.org/) -->
<svg width="87.591" height="50.389" version="1.1" viewBox="0 0 87.591 50.389" xmlns="http://www.w3.org/2000/svg" xmlns:cc="http://creativecommons.org/ns#" xmlns:dc="http://purl.org/dc/elements/1.1/" xmlns:rdf="http://www.w3.org/1999/02/22-rdf-syntax-ns#">
 <metadata>
  <rdf:RDF>
   <cc:Work rdf:about="">
    <dc:format>image/svg+xml</dc:format>
    <dc:type rdf:resource="http://purl.org/dc/dcmitype/StillImage"/>
    <dc:title/>
   </cc:Work>
  </rdf:RDF>
 </metadata>
 <path d="m33.682 42.356c-0.176-0.04435-0.41-0.19633-0.52-0.33772-0.31263-0.40186-0.24494-2.1454 0.12074-3.1099 0.52245-1.3781 0.50644-1.3663 1.3918-1.0228 1.278 0.49583 3.5249 0.84942 4.7675 0.75026 0.09521-0.0076 0.13797-0.44094 0.10559-1.0702l-0.05441-1.0574-3.2578 0.11634c-3.9852 0.14231-3.8243 0.21928-3.8173-1.825 0.0038-1.1014 0.07536-1.5133 0.35754-2.0571 0.19406-0.374 0.41881-0.68 0.49945-0.68s0.74517 0.1435 1.4767 0.31888c0.87238 0.20914 1.8872 0.31926 2.9488 0.32l1.6186 0.0011-0.05829-1.08c-0.03206-0.594-0.13221-2.52-0.22255-4.28-0.33596-6.5448-0.77312-11.92-0.96944-11.92-0.06363 0-0.1925 0.198-0.28638 0.44-3.2085 6.0496-6.7597 13.065-9.5902 18.745-2.1629 4.3393-2.755 5.4002-3.1473 5.6394-1.2916 0.78767-1.4685 0.53038-6.3278-9.2023-3.5747-7.1598-6.0639-12.061-7.507-14.782-0.19838-0.374-0.40988-0.68-0.47-0.68-0.13578 0-0.58693 7.0119-0.89562 13.92-0.33503 7.4976-0.57121 10.175-0.98996 11.221-0.31857 0.79619-1.0949 1.1714-2.1621 1.045-1.0229-0.12115-2.6902-0.86929-2.6925-1.2082-9.96e-4 -0.14198 0.28394-1.1582 0.6332-2.2582 0.94021-2.9613 1.6409-6.3763 2.2323-10.88 0.8194-6.2395 0.90516-14.578 0.17608-17.121-0.0879-0.30648-0.15981-0.6808-0.15981-0.83182 0-0.76867 2.0793-1.7424 2.9852-1.3979 0.79575 0.30254 2.0647 1.8204 3.6704 4.3904 0.54932 0.87922 1.51 2.6999 2.3948 4.5387 1.3172 2.7373 6.0318 12.148 6.5434 13.061 0.24654 0.44 0.69665 1.2494 1.0002 1.7986 0.30359 0.54923 0.7435 1.1493 0.97758 1.3334l0.4256 0.33478 0.48219-0.57434c0.2652-0.31589 0.66024-0.91591 0.87786-1.3334s0.85697-1.587 1.4208-2.599 1.9888-3.82 3.1667-6.24c2.0252-4.1608 4.0384-8.1799 5.1693-10.32 1.4191-2.6853 3.0826-4.4 4.2685-4.4 1.0263 0.0052 1.5798 0.44125 2.3198 0.88233 0.24547 0.15636 0.2541 0.54894 0.06078 1.2911-0.9211 3.5363-0.63229 13.593 0.60504 21.068l0.19174 1.1584 0.8-0.04837c3.1784-0.19218 8.8925-1.7243 10.598-2.8416 0.21351-0.1399 0.48349-0.21779 0.59997-0.17309 0.31567 0.12114 0.72238 2.1493 0.72238 3.6024 0 1.1267-0.04668 1.3316-0.39878 1.7501-0.53768 0.63899-0.41542 0.62476-9.2812 1.0806-1.144 0.05882-2.1078 0.13239-2.1417 0.16347-0.07867 0.0721 0.63054 2.3419 0.78745 2.5202 0.11259 0.12796 1.4411-0.0167 3.6742-0.40008 1.3306-0.22844 3.9446-0.96659 5.2703-1.4882 0.56669-0.22298 1.1181-0.40542 1.2255-0.40542 0.29835 0 0.58845 1.9747 0.52246 3.5564-0.05316 1.274-0.09713 1.4353-0.50166 1.84l-0.4434 0.44358-6.6766 0.1086c-3.6721 0.05973-8.3686 0.14394-10.437 0.18714s-3.904 0.04226-4.08-0.0021z" stroke-width=".16"/>
 <path d="m82.151 21.59c-0.65995 0.0028-1.1073 0.03029-1.4746 0.22461-0.18364 0.09716-0.34686 0.26647-0.41797 0.46875-0.07111 0.20228-0.05888 0.40435-0.01563 0.59766 0.50791 2.27 0.57954 4.4451 0.34375 10.963-0.0919 2.541-0.13714 4.2681-0.13867 5.4102-7.67e-4 0.57103 0.0082 0.99413 0.03125 1.3086 0.02302 0.31447 0.02985 0.49691 0.14648 0.71484 0.11929 0.2229 0.32056 0.45797 0.59961 0.53906 0.27905 0.08109 0.54967 0.05351 0.95508 0.0078 0.26489-0.02985 0.51811-0.06971 0.7207-0.11133 0.10129-0.02081 0.18877-0.04246 0.26758-0.06641 0.0394-0.01197 0.07637-0.02332 0.11719-0.04102 0.04081-0.01769 0.08334-0.02865 0.16406-0.10938 0.1354-0.13525 0.11925-0.20418 0.12891-0.25977 0.0097-0.05559 0.01068-0.10102 0.01172-0.15039 0.0021-0.09873-0.0025-0.20806-0.01367-0.33594-0.02241-0.25575-0.06758-0.57955-0.13086-0.92188-0.10907-0.59029-0.19681-2.5229-0.21484-4.9258-0.01803-2.4029 0.02142-5.3228 0.12305-8.0664 0.08388-2.2646 0.12159-3.4593 0-4.1934-0.0608-0.36705-0.17534-0.66734-0.42383-0.85547-0.24849-0.18813-0.52758-0.19834-0.7793-0.19726zm-1.5254 19.688-0.04688-0.16992 0.0039 0.0918zm-19.629-19.041c-0.45487 0.07885-0.86163 0.31515-1.1758 0.63477s-0.54048 0.72909-0.59961 1.1816c-0.04498 0.3443 0.13617 0.69273 0.32812 1.0254 0.2007 0.32231 0.58251 0.58571 0.79883 0.67574 0.45445 0.14635 0.93802 0.16362 1.3633-0.03906 0.65612-0.31271 1.1973-0.97251 1.1973-1.8027 0-0.54027-0.1294-1.0363-0.52148-1.334-0.42795-0.32486-0.93576-0.42064-1.3906-0.3418zm11.154 5.5293c-1.4084 0.0097-3.2606 0.51416-4.7793 2.2051-1.2907 1.437-1.7396 2.8119-1.7383 5.25 9.01e-4 1.6902 0.10297 2.2336 0.60352 3.2559 0.95747 1.9555 2.6163 3.0733 4.9863 3.3926l0.07227 0.0098 0.05664-0.01172c1.2202 0.1502 2.3867 0.13192 3.3125-0.06836 0.96177-0.20808 1.7438-0.56284 1.9941-1.2754 0.0899-0.25586 0.14666-0.47952 0.12891-0.71484-0.01775-0.23533-0.17375-0.50477-0.40234-0.61524s-0.45876-0.10614-0.71289-0.07031c-0.25413 0.03583-0.53987 0.11456-0.88086 0.22852-2.182 0.72925-4.5927 0.21625-5.6055-1.0449-0.31157-0.388-0.6476-0.80681-0.74609-0.92969 0.05782 0.07213 0.01187 0.01457-0.01172-0.06055s-0.05186-0.18437-0.08008-0.31445c-0.05643-0.26016-0.1123-0.60224-0.15234-0.94726l-0.08789-0.74219 0.0918 0.01953c0.27646 0.06074 0.72988 0.08465 1.3887 0.11328 0.65879 0.02863 1.4752 0.04826 2.2949 0.05273 1.296 0.0071 2.0731-2e-3 2.6582-0.06445 0.58508-0.06243 0.98386-0.1898 1.418-0.38867 0.58188-0.26658 1.0259-0.59404 1.3027-1.0605s0.36914-1.0283 0.36914-1.7285c0-0.78627-0.14667-1.4643-0.51367-2.0723-0.367-0.60794-0.93366-1.133-1.7305-1.6914-0.80772-0.56602-2.1082-0.73433-3.2363-0.72656zm-9.6523 0.24805-1.3906 0.0039c-0.38069 0.0012-0.67679 0.0028-0.94141 0.04883-0.26462 0.04608-0.54675 0.16945-0.69726 0.42188-0.15052 0.25243-0.15092 0.52466-0.12305 0.83203 0.02787 0.30737 0.09835 0.67378 0.19141 1.1523 0.29467 1.5155 0.29408 4.5664-0.03906 8.4844-0.03452 0.40601-0.04066 0.82197-0.01953 1.1895 0.01788 0.31104 0.06533 0.55557 0.13281 0.78516 0.01225 0.04166 0.0085 0.10328 0.02344 0.14258 0.05581 0.14638 0.10164 0.27229 0.18164 0.40039 0.08001 0.1281 0.21884 0.26123 0.38281 0.32227 0.32794 0.12207 0.59944 0.05001 1.0742-0.01953 0.28551-0.04182 0.56357-0.09978 0.79297-0.16211 0.1147-0.03116 0.21548-0.06206 0.30664-0.09766 0.09116-0.0356 0.163-0.05019 0.2793-0.16211 0.14539-0.13991 0.15376-0.2658 0.16602-0.37109 0.01226-0.10529 0.0096-0.20661-2e-3 -0.31445-0.02311-0.21569-0.08051-0.45762-0.16797-0.70508-0.15546-0.43984-0.2472-1.9396-0.20703-6.1016zm10.256 1.9336c1.2266 0.19406 2.1914 0.8801 2.3555 1.9121 0.06947 0.43689 0.01775 0.77458-0.10937 1.0215-0.12712 0.2469-0.32696 0.42427-0.65625 0.53906-0.11542 0.04023-0.64879 0.11185-1.2793 0.13477-0.63051 0.02291-1.3973 0.01771-2.1426-0.0078-0.7453-0.02552-1.4719-0.07185-2.0215-0.13477-0.27481-0.03146-0.5067-0.06847-0.66406-0.10352-0.0056-0.0012-0.0063-0.0027-0.01172-0.0039 0.0073-0.03008 0.0076-0.04296 0.01758-0.07813 0.05958-0.21096 0.16405-0.50157 0.28711-0.80078 0.12306-0.29921 0.26608-0.60842 0.40039-0.86523s0.27302-0.46962 0.32617-0.52734c0.86302-0.93731 2.2715-1.28 3.498-1.0859z" color="#000000" color-rendering="auto" dominant-baseline="auto" image-rendering="auto" shape-rendering="auto" solid-color="#000000" style="font-feature-settings:normal;font-variant-alternates:normal;font-variant-caps:normal;font-variant-ligatures:normal;font-variant-numeric:normal;font-variant-position:normal;isolation:auto;mix-blend-mode:normal;shape-padding:0;text-decoration-color:#000000;text-decoration-line:none;text-decoration-style:solid;text-indent:0;text-orientation:mixed;text-transform:none;white-space:normal"/>
</svg>
